Chemical Evaluation
…
            3/17/2018

28 Unique Chemical

## # A tibble: 28 x 2
##   label                   quant                                        
##   <chr>                   <chr>                                        
## 1 RESTRICTED USE CHEMICAL " HERBICIDE: (PARAQUAT = 61601)"             
## 2 RESTRICTED USE CHEMICAL " INSECTICIDE: (ABAMECTIN = 122804)"         
## 3 RESTRICTED USE CHEMICAL " INSECTICIDE: (BETA-CYFLUTHRIN = 118831)"   
## 4 RESTRICTED USE CHEMICAL " INSECTICIDE: (BIFENTHRIN = 128825)"        
## 5 RESTRICTED USE CHEMICAL " INSECTICIDE: (CHLORANTRANILIPROLE = 90100)"
## 6 RESTRICTED USE CHEMICAL " INSECTICIDE: (CHLORPYRIFOS = 59101)"       
## 7 RESTRICTED USE CHEMICAL " INSECTICIDE: (CYFLUTHRIN = 128831)"        
## # ... with 21 more rows

Initially, we select 28 unique restricted used chemicals in order to find their corresponding cas codes and LD50 values (filtering by species-rat, study type-oral and averaging the toxicity value)

LD50

## # A tibble: 63 x 10
##   label   chemical  Commodity  Year A          B      C     D E       LD50
##   <chr>   <chr>     <chr>     <dbl> <chr>  <dbl>  <dbl> <dbl> <chr>  <dbl>
## 1 RESTRI (PRONAMI BROCCOLI   2006 200   1.20   1.20    1.00 (Z)   4192  
## 2 RESTRI (BETA-CY BROCCOLI   2014 500   0.0230 0.0300  1.30 13      77.0
## # ... with 61 more rows
…
